[gd_resource type="SampleLibrary" load_steps=6 format=1]

[ext_resource path="res://sfx/foul.smp" type="Sample" id=1]
[ext_resource path="res://sfx/landing.smp" type="Sample" id=2]
[ext_resource path="res://sfx/left.smp" type="Sample" id=3]
[ext_resource path="res://sfx/right.smp" type="Sample" id=4]
[ext_resource path="res://sfx/throw.smp" type="Sample" id=5]

[resource]

samples/foul = { "db":0.0, "pitch":1.0, "sample":ExtResource( 1 ) }
samples/landing = { "db":0.0, "pitch":1.0, "sample":ExtResource( 2 ) }
samples/left = { "db":0.0, "pitch":1.0, "sample":ExtResource( 3 ) }
samples/right = { "db":0.0, "pitch":1.0, "sample":ExtResource( 4 ) }
samples/throw = { "db":0.0, "pitch":1.0, "sample":ExtResource( 5 ) }

