<?xml version="1.0" encoding="UTF-8" standalone="no"?>
<!-- Created with Inkscape (http://www.inkscape.org/) -->

<svg
   xmlns:dc="http://purl.org/dc/elements/1.1/"
   xmlns:cc="http://creativecommons.org/ns#"
   xmlns:rdf="http://www.w3.org/1999/02/22-rdf-syntax-ns#"
   xmlns:svg="http://www.w3.org/2000/svg"
   xmlns="http://www.w3.org/2000/svg"
   xmlns:sodipodi="http://sodipodi.sourceforge.net/DTD/sodipodi-0.dtd"
   xmlns:inkscape="http://www.inkscape.org/namespaces/inkscape"
   width="96"
   height="120"
   viewBox="0 0 96.000000000132 119.99999999722"
   id="svg4173"
   version="1.1"
   inkscape:version="0.91 r13725"
   sodipodi:docname="player.svg"
   inkscape:export-filename="/home/tegu/Asiakirjat/kode/godot/ld36-ancient-technology/game/gfx/player_frames/thrown.png"
   inkscape:export-xdpi="90"
   inkscape:export-ydpi="90">
  <defs
     id="defs4175" />
  <sodipodi:namedview
     id="base"
     pagecolor="#ffffff"
     bordercolor="#666666"
     borderopacity="1.0"
     inkscape:pageopacity="0.0"
     inkscape:pageshadow="2"
     inkscape:zoom="6.6083333333333"
     inkscape:cx="48"
     inkscape:cy="60"
     inkscape:document-units="px"
     inkscape:current-layer="g4815"
     showgrid="false"
     units="px"
     height="60px"
     inkscape:object-nodes="true"
     inkscape:object-paths="false"
     inkscape:snap-smooth-nodes="true"
     inkscape:snap-global="false"
     inkscape:window-width="1276"
     inkscape:window-height="985"
     inkscape:window-x="0"
     inkscape:window-y="18"
     inkscape:window-maximized="0"
     inkscape:snap-bbox="true" />
  <metadata
     id="metadata4178">
    <rdf:RDF>
      <cc:Work
         rdf:about="">
        <dc:format>image/svg+xml</dc:format>
        <dc:type
           rdf:resource="http://purl.org/dc/dcmitype/StillImage" />
        <dc:title />
      </cc:Work>
    </rdf:RDF>
  </metadata>
  <g
     inkscape:label="stand_hold"
     inkscape:groupmode="layer"
     id="layer1"
     transform="translate(0,-932.3622031024)"
     style="display:none"
     sodipodi:insensitive="true">
    <ellipse
       style="color:#000000;clip-rule:nonzero;display:inline;overflow:visible;visibility:visible;opacity:1;isolation:auto;mix-blend-mode:normal;color-interpolation:sRGB;color-interpolation-filters:linearRGB;solid-color:#000000;solid-opacity:1;fill:#ffdb9d;fill-opacity:1;fill-rule:evenodd;stroke:#ffdb9d;stroke-width:8;stroke-linecap:round;stroke-linejoin:round;stroke-miterlimit:4;stroke-dasharray:none;stroke-dashoffset:0;stroke-opacity:1;marker:none;color-rendering:auto;image-rendering:auto;shape-rendering:auto;text-rendering:auto;enable-background:accumulate"
       id="path4725"
       cx="47.848526000977"
       cy="948.51062011719"
       rx="8.6254730224609"
       ry="11.651954650879" />
    <path
       style="fill:none;fill-rule:evenodd;stroke:#ffdb9d;stroke-width:8;stroke-linecap:round;stroke-linejoin:round;stroke-miterlimit:4;stroke-dasharray:none;stroke-opacity:1"
       d="m 47.848526045777,960.16260624719 0,49.48295785181"
       id="path4729"
       inkscape:connector-curvature="0" />
    <path
       style="fill:none;fill-rule:evenodd;stroke:#ffdb9d;stroke-width:8;stroke-linecap:round;stroke-linejoin:round;stroke-miterlimit:4;stroke-dasharray:none;stroke-opacity:1"
       d="m 47.8115377221,1009.6434428693 15.905690095422,38.0016047536"
       id="path4748"
       inkscape:connector-curvature="0"
       inkscape:transform-center-x="-7.9695516522666"
       inkscape:transform-center-y="18.385938668856" />
    <path
       style="fill:none;fill-rule:evenodd;stroke:#ffdb9d;stroke-width:8;stroke-linecap:round;stroke-linejoin:round;stroke-miterlimit:4;stroke-dasharray:none;stroke-opacity:1"
       d="m 47.848526045777,1009.645564099 -17.890782418438,37.108393198"
       id="path4748-6"
       inkscape:connector-curvature="0" />
    <path
       style="fill:none;fill-rule:evenodd;stroke:#ffdb9d;stroke-width:8;stroke-linecap:round;stroke-linejoin:round;stroke-miterlimit:4;stroke-dasharray:none;stroke-opacity:1"
       d="m 47.817323446206,976.63038899292 11.370664752415,21.80264941892"
       id="path4765"
       inkscape:connector-curvature="0"
       inkscape:transform-center-x="-5.6406132217885"
       inkscape:transform-center-y="10.889626991015" />
    <path
       style="fill:none;fill-rule:evenodd;stroke:#ffdb9d;stroke-width:8;stroke-linecap:round;stroke-linejoin:round;stroke-miterlimit:4;stroke-dasharray:none;stroke-opacity:1"
       d="m 47.818261228628,976.65691340539 -10.920788966433,6.20282210118 -8.57009941894,-8.81562706787"
       id="path4765-7"
       inkscape:connector-curvature="0"
       sodipodi:nodetypes="ccc" />
  </g>
  <g
     style="display:none"
     transform="translate(0,-932.3622031024)"
     id="g4787"
     inkscape:groupmode="layer"
     inkscape:label="run_right"
     sodipodi:insensitive="true">
    <ellipse
       ry="11.651954650879"
       rx="8.6254730224609"
       cy="948.51062011719"
       cx="47.848526000977"
       id="ellipse4789"
       style="color:#000000;clip-rule:nonzero;display:inline;overflow:visible;visibility:visible;opacity:1;isolation:auto;mix-blend-mode:normal;color-interpolation:sRGB;color-interpolation-filters:linearRGB;solid-color:#000000;solid-opacity:1;fill:#ffdb9d;fill-opacity:1;fill-rule:evenodd;stroke:#ffdb9d;stroke-width:8;stroke-linecap:round;stroke-linejoin:round;stroke-miterlimit:4;stroke-dasharray:none;stroke-dashoffset:0;stroke-opacity:1;marker:none;color-rendering:auto;image-rendering:auto;shape-rendering:auto;text-rendering:auto;enable-background:accumulate" />
    <path
       inkscape:connector-curvature="0"
       id="path4791"
       d="m 47.848526045777,960.16260624719 0,49.48295785181"
       style="fill:none;fill-rule:evenodd;stroke:#ffdb9d;stroke-width:8;stroke-linecap:round;stroke-linejoin:round;stroke-miterlimit:4;stroke-dasharray:none;stroke-opacity:1" />
    <path
       inkscape:transform-center-y="18.385938668856"
       inkscape:transform-center-x="-7.9695516522666"
       inkscape:connector-curvature="0"
       id="path4793"
       d="m 47.8115377221,1009.6434428693 14.907993716955,18.3587886536 -11.014591898287,15.4263276698"
       style="fill:none;fill-rule:evenodd;stroke:#ffdb9d;stroke-width:8;stroke-linecap:round;stroke-linejoin:round;stroke-miterlimit:4;stroke-dasharray:none;stroke-opacity:1"
       sodipodi:nodetypes="ccc" />
    <path
       inkscape:connector-curvature="0"
       id="path4795"
       d="m 47.848526045777,1009.645564099 -8.410379773123,20.5872400562 -17.50557418675,7.6399633026"
       style="fill:none;fill-rule:evenodd;stroke:#ffdb9d;stroke-width:8;stroke-linecap:round;stroke-linejoin:round;stroke-miterlimit:4;stroke-dasharray:none;stroke-opacity:1"
       sodipodi:nodetypes="ccc" />
    <path
       inkscape:transform-center-y="10.889626991015"
       inkscape:transform-center-x="-5.6406132217885"
       inkscape:connector-curvature="0"
       id="path4797"
       d="m 47.817323446206,976.63038899292 11.370664752415,21.80264941892"
       style="fill:none;fill-rule:evenodd;stroke:#ffdb9d;stroke-width:8;stroke-linecap:round;stroke-linejoin:round;stroke-miterlimit:4;stroke-dasharray:none;stroke-opacity:1" />
    <path
       sodipodi:nodetypes="ccc"
       inkscape:connector-curvature="0"
       id="path4799"
       d="m 47.818261228628,976.65691340539 -10.920788966433,6.20282210118 -8.57009941894,-8.81562706787"
       style="fill:none;fill-rule:evenodd;stroke:#ffdb9d;stroke-width:8;stroke-linecap:round;stroke-linejoin:round;stroke-miterlimit:4;stroke-dasharray:none;stroke-opacity:1" />
  </g>
  <g
     inkscape:label="run_left"
     inkscape:groupmode="layer"
     id="g4801"
     transform="translate(0,-932.3622031024)"
     style="display:none"
     sodipodi:insensitive="true">
    <ellipse
       style="color:#000000;clip-rule:nonzero;display:inline;overflow:visible;visibility:visible;opacity:1;isolation:auto;mix-blend-mode:normal;color-interpolation:sRGB;color-interpolation-filters:linearRGB;solid-color:#000000;solid-opacity:1;fill:#ffdb9d;fill-opacity:1;fill-rule:evenodd;stroke:#ffdb9d;stroke-width:8;stroke-linecap:round;stroke-linejoin:round;stroke-miterlimit:4;stroke-dasharray:none;stroke-dashoffset:0;stroke-opacity:1;marker:none;color-rendering:auto;image-rendering:auto;shape-rendering:auto;text-rendering:auto;enable-background:accumulate"
       id="ellipse4803"
       cx="47.848526000977"
       cy="948.51062011719"
       rx="8.6254730224609"
       ry="11.651954650879" />
    <path
       style="fill:none;fill-rule:evenodd;stroke:#ffdb9d;stroke-width:8;stroke-linecap:round;stroke-linejoin:round;stroke-miterlimit:4;stroke-dasharray:none;stroke-opacity:1"
       d="m 47.848526045777,960.16260624719 0,49.48295785181"
       id="path4805"
       inkscape:connector-curvature="0" />
    <path
       sodipodi:nodetypes="ccc"
       style="fill:none;fill-rule:evenodd;stroke:#ffdb9d;stroke-width:8;stroke-linecap:round;stroke-linejoin:round;stroke-miterlimit:4;stroke-dasharray:none;stroke-opacity:1"
       d="m 47.8115377221,1009.6434428693 21.114126375665,9.7986056761 -5.129466101235,18.1013848503"
       id="path4807"
       inkscape:connector-curvature="0"
       inkscape:transform-center-x="-7.9695516522666"
       inkscape:transform-center-y="18.385938668856" />
    <path
       sodipodi:nodetypes="ccc"
       style="fill:none;fill-rule:evenodd;stroke:#ffdb9d;stroke-width:8;stroke-linecap:round;stroke-linejoin:round;stroke-miterlimit:4;stroke-dasharray:none;stroke-opacity:1"
       d="m 47.848526045777,1009.645564099 -3.060265412166,20.2662331945 -13.653491846862,12.9900776636"
       id="path4809"
       inkscape:connector-curvature="0" />
    <path
       style="fill:none;fill-rule:evenodd;stroke:#ffdb9d;stroke-width:8;stroke-linecap:round;stroke-linejoin:round;stroke-miterlimit:4;stroke-dasharray:none;stroke-opacity:1"
       d="m 47.817323446206,976.63038899292 11.370664752415,21.80264941892"
       id="path4811"
       inkscape:connector-curvature="0"
       inkscape:transform-center-x="-5.6406132217885"
       inkscape:transform-center-y="10.889626991015" />
    <path
       style="fill:none;fill-rule:evenodd;stroke:#ffdb9d;stroke-width:8;stroke-linecap:round;stroke-linejoin:round;stroke-miterlimit:4;stroke-dasharray:none;stroke-opacity:1"
       d="m 47.818261228628,976.65691340539 -10.920788966433,6.20282210118 -8.57009941894,-8.81562706787"
       id="path4813"
       inkscape:connector-curvature="0"
       sodipodi:nodetypes="ccc" />
  </g>
  <g
     style="display:inline"
     transform="translate(0,-932.3622031024)"
     id="g4815"
     inkscape:groupmode="layer"
     inkscape:label="thrown">
    <ellipse
       ry="11.651954650879"
       rx="8.6254730224609"
       cy="948.51062011719"
       cx="47.848526000977"
       id="ellipse4817"
       style="color:#000000;clip-rule:nonzero;display:inline;overflow:visible;visibility:visible;opacity:1;isolation:auto;mix-blend-mode:normal;color-interpolation:sRGB;color-interpolation-filters:linearRGB;solid-color:#000000;solid-opacity:1;fill:#ffdb9d;fill-opacity:1;fill-rule:evenodd;stroke:#ffdb9d;stroke-width:8;stroke-linecap:round;stroke-linejoin:round;stroke-miterlimit:4;stroke-dasharray:none;stroke-dashoffset:0;stroke-opacity:1;marker:none;color-rendering:auto;image-rendering:auto;shape-rendering:auto;text-rendering:auto;enable-background:accumulate" />
    <path
       inkscape:connector-curvature="0"
       id="path4819"
       d="m 47.848526045777,960.16260624719 0,49.48295785181"
       style="fill:none;fill-rule:evenodd;stroke:#ffdb9d;stroke-width:8;stroke-linecap:round;stroke-linejoin:round;stroke-miterlimit:4;stroke-dasharray:none;stroke-opacity:1" />
    <path
       inkscape:transform-center-y="18.385938668856"
       inkscape:transform-center-x="-7.9695516522666"
       inkscape:connector-curvature="0"
       id="path4821"
       d="m 47.8115377221,1009.6434428693 15.114126375665,15.7986056761 -5.129466101235,18.1013848503"
       style="fill:none;fill-rule:evenodd;stroke:#ffdb9d;stroke-width:8;stroke-linecap:round;stroke-linejoin:round;stroke-miterlimit:4;stroke-dasharray:none;stroke-opacity:1"
       sodipodi:nodetypes="ccc" />
    <path
       inkscape:connector-curvature="0"
       id="path4823"
       d="m 47.848526045777,1009.645564099 -3.060265412166,20.2662331945 -13.653491846862,12.9900776636"
       style="fill:none;fill-rule:evenodd;stroke:#ffdb9d;stroke-width:8;stroke-linecap:round;stroke-linejoin:round;stroke-miterlimit:4;stroke-dasharray:none;stroke-opacity:1"
       sodipodi:nodetypes="ccc" />
    <path
       inkscape:transform-center-y="10.889626991015"
       inkscape:transform-center-x="-5.6406132217885"
       inkscape:connector-curvature="0"
       id="path4825"
       d="m 47.817323446206,976.63038899292 -14.051781653638,16.3549823319"
       style="fill:none;fill-rule:evenodd;stroke:#ffdb9d;stroke-width:8;stroke-linecap:round;stroke-linejoin:round;stroke-miterlimit:4;stroke-dasharray:none;stroke-opacity:1"
       sodipodi:nodetypes="cc" />
    <path
       sodipodi:nodetypes="ccc"
       inkscape:connector-curvature="0"
       id="path4827"
       d="m 47.818261228628,976.65691340539 13.593712925118,-6.3570770161 5.200392384339,-11.53946061137"
       style="fill:none;fill-rule:evenodd;stroke:#ffdb9d;stroke-width:8;stroke-linecap:round;stroke-linejoin:round;stroke-miterlimit:4;stroke-dasharray:none;stroke-opacity:1" />
  </g>
  <g
     inkscape:groupmode="layer"
     id="layer2"
     inkscape:label="javelin"
     style="display:none"
     sodipodi:insensitive="true">
    <ellipse
       style="color:#000000;clip-rule:nonzero;display:inline;overflow:visible;visibility:visible;opacity:1;isolation:auto;mix-blend-mode:normal;color-interpolation:sRGB;color-interpolation-filters:linearRGB;solid-color:#000000;solid-opacity:1;fill:#996600;fill-opacity:1;fill-rule:evenodd;stroke:#cc9900;stroke-width:2px;stroke-linecap:butt;stroke-linejoin:miter;stroke-miterlimit:4;stroke-dasharray:none;stroke-dashoffset:0;stroke-opacity:1;marker:none;color-rendering:auto;image-rendering:auto;shape-rendering:auto;text-rendering:auto;enable-background:accumulate"
       id="path6030"
       cx="28.327373504639"
       cy="40.208339691162"
       rx="56.287593841553"
       ry="1.4735642671585"
       inkscape:export-filename="/home/tegu/Asiakirjat/kode/godot/ld36-ancient-technology/game/gfx/javelin.png"
       inkscape:export-xdpi="90"
       inkscape:export-ydpi="90" />
  </g>
</svg>
